<svg height="30" viewBox="0 0 273 64" xmlns="http://www.w3.org/2000/svg">
  <title>John Lewis</title>
  <path d="M.78 57.03h2.155c6.667 0 7.276-3.27 7.276-10.256V.284l6.802 6.683V48.64c0 7.388-2.557 13.247-9.494 14.645L.78 57.03zm37.54-33.624c5.79 0 9.966 4.062 9.966 9.657 0 6.256-3.84 10.12-9.966 10.12-5.592 0-9.43-4.064-9.43-10.19 0-5.525 3.97-9.587 9.43-9.587zm.064 25.43c9.7 0 16.368-6.39 16.368-15.84 0-8.857-6.87-15.247-16.367-15.247-9.02 0-15.96 6.655-15.96 15.245 0 9.188 6.668 15.842 15.96 15.842zm40.938-19.17c0-4.263-2.157-6.99-5.59-6.99-2.494 0-4.51 1.13-7.207 4.194v21.368h-6.327V3.966h6.327v17.912c2.225-2.665 5.524-4.263 8.756-4.263 5.995 0 10.374 4.062 10.374 12.25V48.24h-6.332V29.666zm32.78.132c0-4.328-2.153-6.992-5.588-6.992-2.49 0-4.51 1.133-7.204 4.13v21.3h-6.33V18.252h6.33v3.757c2.222-2.665 5.52-4.262 8.756-4.262 5.79 0 10.367 3.926 10.367 12.114v18.374h-6.328V29.798h-.002zM137.236.285l6.093 6.152V42.05h13.64l5.926 6.188h-25.66V.285zm36.802 22.922c3.972 0 6.464 2.664 6.735 6.425h-14.547c.877-3.962 3.5-6.425 7.812-6.425zm12.425 21.935c-1.012-.863-3.942-3.763-3.942-3.763-2.288 1-4.443 1.467-6.668 1.467-5.52 0-8.82-2.864-9.763-8.082h20.94c0-11.558-5.12-17.017-13.13-17.017-8.35 0-14.144 6.122-14.144 15.178 0 8.255 5.255 15.91 14.682 15.91 5.052 0 8.336-1.115 12.025-3.694zm35.1 3.695l-8.96-21.362-8.897 21.362h-1.89l-13.586-30.61h6.75l7.796 17.952 7.465-17.952h4.712l7.5 17.95 7.758-17.97h6.72l-13.48 30.63h-1.887zM240.017 7.35c0-1.997 1.616-3.662 3.57-3.662 1.954 0 3.57 1.665 3.57 3.663 0 2.064-1.616 3.73-3.57 3.73-1.954 0-3.57-1.666-3.57-3.73zm.54 10.864h6.336v30.024h-6.337V18.214zM252.28 46.04v-6.79c4.11 2.863 7.75 4.075 10.044 4.075 2.203 0 3.913-.85 3.993-2.805.038-1.028-.77-2.134-2.05-3-1.278-.932-3.028-1.8-4.782-2.862-3.433-1.997-7.003-4.594-7.003-8.72 0-5.128 3.67-8.19 9.97-8.19 2.825 0 5.656.798 8.887 2.528v6.26c-3.57-2.397-6.915-3.345-9.067-3.345-2.356 0-3.46 1.03-3.39 2.546.07 1.522 1.85 2.7 7.276 5.74 5.106 2.862 6.596 5.376 6.596 8.507 0 5.324-4.243 8.853-9.967 8.853-3.705 0-6.533-.73-10.51-2.795z"
  fill="#6F6F6F" fill-rule="evenodd" />
</svg>